…
<!--------------------------- Start your work below --------------------------->

#### Check if our data is tidy

``` r
# In Milestone 1, I used the cancer_sample dataset
# Check first 8 columns of cancer_sample to check if the data is tidy
cancer_sample %>% 
  select(1:8)
```

    ## # A tibble: 569 × 8
    ##          ID diagnosis radius_mean texture_mean perimet…¹ area_…² smoot…³ compa…⁴
    ##       <dbl> <chr>           <dbl>        <dbl>     <dbl>   <dbl>   <dbl>   <dbl>
    ##  1   842302 M                18.0         10.4     123.    1001   0.118   0.278 
    ##  2   842517 M                20.6         17.8     133.    1326   0.0847  0.0786
    ##  3 84300903 M                19.7         21.2     130     1203   0.110   0.160 
    ##  4 84348301 M                11.4         20.4      77.6    386.  0.142   0.284 
    ##  5 84358402 M                20.3         14.3     135.    1297   0.100   0.133 
    ##  6   843786 M                12.4         15.7      82.6    477.  0.128   0.17  
    ##  7   844359 M                18.2         20.0     120.    1040   0.0946  0.109 
    ##  8 84458202 M                13.7         20.8      90.2    578.  0.119   0.164 
    ##  9   844981 M                13           21.8      87.5    520.  0.127   0.193 
    ## 10 84501001 M                12.5         24.0      84.0    476.  0.119   0.240 
    ## # … with 559 more rows, and abbreviated variable names ¹​perimeter_mean,
    ## #   ²​area_mean, ³​smoothness_mean, ⁴​compactness_mean
…
